{
	"last-built": "08:16:01 Friday May 26 2023",
	"name": "docs/cmds/unwatch",
	"title": "unwatch",
	"template": "template/page.template",
	"dependencies": [
		"content/docs/cmds/unwatch.content",
		"template/footer.content",
		"template/head.content",
		"template/header.content",
		"template/menu.content",
		"template/page.template"
	]
}