{
	"last-built": "08:16:01 Friday May 26 2023",
	"name": "resources/js_frameworks",
	"title": "js_frameworks",
	"template": "template/page.template",
	"dependencies": [
		"content/resources/js_frameworks.content",
		"template/footer.content",
		"template/head.content",
		"template/header.content",
		"template/menu.content",
		"template/page.template"
	]
}