{
	"last-built": "15:10:13 Wednesday May 24 2023",
	"name": "assets/css/bundled",
	"title": "bundled'",
	"template": "template/css.template",
	"dependencies": [
		"content/assets/css/bundled.content",
		"content/assets/css/font-awesome.css",
		"content/assets/css/menu.css",
		"content/assets/css/pagestyle.css",
		"template/css.template"
	]
}