{
	"last-built": "08:16:01 Friday May 26 2023",
	"name": "docs/bitbucket_hosting",
	"title": "bitbucket_hosting",
	"template": "template/page.template",
	"dependencies": [
		"content/docs/bitbucket_hosting.content",
		"template/footer.content",
		"template/head.content",
		"template/header.content",
		"template/menu.content",
		"template/page.template"
	]
}