{
	"last-built": "08:16:01 Friday May 26 2023",
	"name": "docs/fns/do-while",
	"title": "do-while",
	"template": "template/page.template",
	"dependencies": [
		"content/docs/fns/do-while.content",
		"template/footer.content",
		"template/head.content",
		"template/header.content",
		"template/menu.content",
		"template/page.template"
	]
}