{
	"last-built": "08:16:01 Friday May 26 2023",
	"name": "docs/fns/lolcat,status",
	"title": "lolcat,status",
	"template": "template/page.template",
	"dependencies": [
		"content/docs/fns/lolcat,status-post-build.f",
		"content/docs/fns/lolcat,status.content",
		"template/footer.content",
		"template/head.content",
		"template/header.content",
		"template/menu.content",
		"template/page.template"
	]
}