{
	"last-built": "08:16:01 Friday May 26 2023",
	"name": "docs/fns/std::vector,size",
	"title": "std::vector,size",
	"template": "template/page.template",
	"dependencies": [
		"content/docs/fns/std::vector,size-post-build.f",
		"content/docs/fns/std::vector,size.content",
		"template/footer.content",
		"template/head.content",
		"template/header.content",
		"template/menu.content",
		"template/page.template"
	]
}